<mxfile host="Electron" modified="2024-04-10T00:01:00.626Z" agent="Mozilla/5.0 (X11; Linux x86_64) AppleWebKit/537.36 (KHTML, like Gecko) draw.io/24.1.0 Chrome/120.0.6099.109 Electron/28.1.0 Safari/537.36" etag="127Vc6QFtEjj9xcZ_uTk" version="24.1.0" type="device" pages="2">
  <diagram id="C5RBs43oDa-KdzZeNtuy" name="Top graph">
    <mxGraphModel dx="1941" dy="735" grid="1" gridSize="10" guides="1" tooltips="1" connect="1" arrows="1" fold="1" page="1" pageScale="1" pageWidth="827" pageHeight="1169" math="0" shadow="0">
      <root>
        <mxCell id="WIyWlLk6GJQsqaUBKTNV-0" />
        <mxCell id="WIyWlLk6GJQsqaUBKTNV-1" parent="WIyWlLk6GJQsqaUBKTNV-0" />
        <mxCell id="3qfGR_5WwNO4YwbP6DgQ-21" value="Create" style="swimlane;startSize=23;fontSize=15;" parent="WIyWlLk6GJQsqaUBKTNV-1" vertex="1">
          <mxGeometry x="-380" y="10" width="200" height="270" as="geometry" />
        </mxCell>
        <mxCell id="3qfGR_5WwNO4YwbP6DgQ-172" value="Text" style="rounded=0;whiteSpace=wrap;html=1;fillColor=#dae8fc;strokeColor=#6c8ebf;fontColor=#000000;" parent="3qfGR_5WwNO4YwbP6DgQ-21" vertex="1">
          <mxGeometry x="20" y="40" width="70" height="25" as="geometry" />
        </mxCell>
        <mxCell id="3qfGR_5WwNO4YwbP6DgQ-173" value="Location" style="rounded=0;whiteSpace=wrap;html=1;fillColor=#f8cecc;strokeColor=#b85450;fontColor=#000000;" parent="3qfGR_5WwNO4YwbP6DgQ-21" vertex="1">
          <mxGeometry x="110" y="40" width="70" height="25" as="geometry" />
        </mxCell>
        <mxCell id="3qfGR_5WwNO4YwbP6DgQ-184" value="Choice" style="rounded=0;whiteSpace=wrap;html=1;fillColor=#ffe6cc;strokeColor=#d79b00;fontColor=#000000;" parent="3qfGR_5WwNO4YwbP6DgQ-21" vertex="1">
          <mxGeometry x="20" y="120" width="70" height="25" as="geometry" />
        </mxCell>
        <mxCell id="3qfGR_5WwNO4YwbP6DgQ-185" value="Investigation" style="rounded=0;whiteSpace=wrap;html=1;fillColor=#ffe6cc;strokeColor=#d79b00;fontColor=#000000;" parent="3qfGR_5WwNO4YwbP6DgQ-21" vertex="1">
          <mxGeometry x="110" y="120" width="70" height="25" as="geometry" />
        </mxCell>
        <mxCell id="3qfGR_5WwNO4YwbP6DgQ-186" value="Argument" style="rounded=0;whiteSpace=wrap;html=1;fillColor=#ffe6cc;strokeColor=#d79b00;fontColor=#000000;" parent="3qfGR_5WwNO4YwbP6DgQ-21" vertex="1">
          <mxGeometry x="20" y="160" width="70" height="25" as="geometry" />
        </mxCell>
        <mxCell id="3qfGR_5WwNO4YwbP6DgQ-187" value="Connect" style="rounded=0;whiteSpace=wrap;html=1;fillColor=#ffe6cc;strokeColor=#d79b00;fontColor=#000000;" parent="3qfGR_5WwNO4YwbP6DgQ-21" vertex="1">
          <mxGeometry x="110" y="160" width="70" height="25" as="geometry" />
        </mxCell>
        <mxCell id="3qfGR_5WwNO4YwbP6DgQ-188" value="Ghost World" style="rounded=0;whiteSpace=wrap;html=1;fillColor=#ffe6cc;strokeColor=#d79b00;fontColor=#000000;" parent="3qfGR_5WwNO4YwbP6DgQ-21" vertex="1">
          <mxGeometry x="20" y="200" width="70" height="25" as="geometry" />
        </mxCell>
        <mxCell id="ihESZhqg2feb3zw89cU4-1" value="Merge" style="rounded=0;whiteSpace=wrap;html=1;fillColor=#dae8fc;strokeColor=#6c8ebf;fontColor=#000000;" parent="3qfGR_5WwNO4YwbP6DgQ-21" vertex="1">
          <mxGeometry x="20" y="80" width="70" height="25" as="geometry" />
        </mxCell>
        <mxCell id="ihESZhqg2feb3zw89cU4-0" value="Note" style="rounded=0;whiteSpace=wrap;html=1;fillColor=#fff2cc;strokeColor=#d6b656;fontColor=#000000;" parent="3qfGR_5WwNO4YwbP6DgQ-21" vertex="1">
          <mxGeometry x="110" y="80" width="70" height="25" as="geometry" />
        </mxCell>
        <mxCell id="3qfGR_5WwNO4YwbP6DgQ-25" value="&lt;font color=&quot;#000000&quot;&gt;Crime Scene (Investigation) ²&lt;/font&gt;" style="swimlane;fontStyle=0;childLayout=stackLayout;horizontal=1;startSize=26;fillColor=#fad7ac;horizontalStack=0;resizeParent=1;resizeParentMax=0;resizeLast=0;collapsible=1;marginBottom=0;html=1;strokeColor=#b46504;" parent="WIyWlLk6GJQsqaUBKTNV-1" vertex="1">
          <mxGeometry x="350" y="83" width="180" height="244" as="geometry" />
        </mxCell>
        <mxCell id="3qfGR_5WwNO4YwbP6DgQ-32" value="&lt;div&gt;Edit inner diagram&lt;/div&gt;" style="text;html=1;align=center;verticalAlign=bottom;whiteSpace=wrap;rounded=0;" parent="3qfGR_5WwNO4YwbP6DgQ-25" vertex="1">
          <mxGeometry y="26" width="180" height="24" as="geometry" />
        </mxCell>
        <mxCell id="3qfGR_5WwNO4YwbP6DgQ-31" value="" style="line;strokeWidth=1;html=1;fillColor=#ffe6cc;strokeColor=#d79b00;" parent="3qfGR_5WwNO4YwbP6DgQ-25" vertex="1">
          <mxGeometry y="50" width="180" height="6" as="geometry" />
        </mxCell>
        <mxCell id="3qfGR_5WwNO4YwbP6DgQ-26" value="🔎 Examine | Edit Text" style="text;strokeColor=none;fillColor=none;align=center;verticalAlign=top;spacingLeft=4;spacingRight=4;overflow=hidden;rotatable=0;points=[[0,0.5],[1,0.5]];portConstraint=eastwest;whiteSpace=wrap;html=1;" parent="3qfGR_5WwNO4YwbP6DgQ-25" vertex="1">
          <mxGeometry y="56" width="180" height="26" as="geometry" />
        </mxCell>
        <mxCell id="3qfGR_5WwNO4YwbP6DgQ-27" value="OBS 1" style="text;strokeColor=none;fillColor=none;align=right;verticalAlign=top;spacingLeft=4;spacingRight=4;overflow=hidden;rotatable=0;points=[[0,0.5],[1,0.5]];portConstraint=eastwest;whiteSpace=wrap;html=1;" parent="3qfGR_5WwNO4YwbP6DgQ-25" vertex="1">
          <mxGeometry y="82" width="180" height="26" as="geometry" />
        </mxCell>
        <mxCell id="3qfGR_5WwNO4YwbP6DgQ-28" value="s1 | OBS 2" style="text;strokeColor=none;fillColor=none;align=right;verticalAlign=top;spacingLeft=4;spacingRight=4;overflow=hidden;rotatable=0;points=[[0,0.5],[1,0.5]];portConstraint=eastwest;whiteSpace=wrap;html=1;" parent="3qfGR_5WwNO4YwbP6DgQ-25" vertex="1">
          <mxGeometry y="108" width="180" height="26" as="geometry" />
        </mxCell>
        <mxCell id="3qfGR_5WwNO4YwbP6DgQ-33" value="" style="line;strokeWidth=1;html=1;fillColor=#ffe6cc;strokeColor=#d79b00;" parent="3qfGR_5WwNO4YwbP6DgQ-25" vertex="1">
          <mxGeometry y="134" width="180" height="6" as="geometry" />
        </mxCell>
        <mxCell id="3qfGR_5WwNO4YwbP6DgQ-35" value="🗣 Talk | Edit Text" style="text;strokeColor=none;fillColor=none;align=center;verticalAlign=top;spacingLeft=4;spacingRight=4;overflow=hidden;rotatable=0;points=[[0,0.5],[1,0.5]];portConstraint=eastwest;whiteSpace=wrap;html=1;" parent="3qfGR_5WwNO4YwbP6DgQ-25" vertex="1">
          <mxGeometry y="140" width="180" height="26" as="geometry" />
        </mxCell>
        <mxCell id="3qfGR_5WwNO4YwbP6DgQ-37" value="OBS 3" style="text;strokeColor=none;fillColor=none;align=right;verticalAlign=top;spacingLeft=4;spacingRight=4;overflow=hidden;rotatable=0;points=[[0,0.5],[1,0.5]];portConstraint=eastwest;whiteSpace=wrap;html=1;" parent="3qfGR_5WwNO4YwbP6DgQ-25" vertex="1">
          <mxGeometry y="166" width="180" height="26" as="geometry" />
        </mxCell>
        <mxCell id="3qfGR_5WwNO4YwbP6DgQ-59" value="" style="line;strokeWidth=1;html=1;fillColor=#ffe6cc;strokeColor=#d79b00;" parent="3qfGR_5WwNO4YwbP6DgQ-25" vertex="1">
          <mxGeometry y="192" width="180" height="6" as="geometry" />
        </mxCell>
        <mxCell id="3qfGR_5WwNO4YwbP6DgQ-60" value="👞 Move | Edit Text" style="text;strokeColor=none;fillColor=none;align=center;verticalAlign=top;spacingLeft=4;spacingRight=4;overflow=hidden;rotatable=0;points=[[0,0.5],[1,0.5]];portConstraint=eastwest;whiteSpace=wrap;html=1;" parent="3qfGR_5WwNO4YwbP6DgQ-25" vertex="1">
          <mxGeometry y="198" width="180" height="26" as="geometry" />
        </mxCell>
        <mxCell id="3qfGR_5WwNO4YwbP6DgQ-171" value="" style="group" parent="3qfGR_5WwNO4YwbP6DgQ-25" vertex="1" connectable="0">
          <mxGeometry y="224" width="180" height="20" as="geometry" />
        </mxCell>
        <mxCell id="3qfGR_5WwNO4YwbP6DgQ-161" value="" style="rounded=0;whiteSpace=wrap;html=1;strokeColor=none;fillColor=#f8cecc;" parent="3qfGR_5WwNO4YwbP6DgQ-171" vertex="1">
          <mxGeometry width="180" height="20" as="geometry" />
        </mxCell>
        <mxCell id="3qfGR_5WwNO4YwbP6DgQ-165" value="Another Place" style="rounded=1;align=left;verticalAlign=middle;fontStyle=0;fontSize=12;labelPosition=right;verticalLabelPosition=middle;spacingLeft=10;html=1;shadow=0;dashed=0" parent="3qfGR_5WwNO4YwbP6DgQ-171" vertex="1">
          <mxGeometry x="40" y="4" width="12" height="12" as="geometry" />
        </mxCell>
        <mxCell id="3qfGR_5WwNO4YwbP6DgQ-63" value="&lt;div&gt;&lt;font color=&quot;#0a0a0a&quot;&gt;&lt;br&gt;&lt;/font&gt;&lt;/div&gt;&lt;div&gt;&lt;font color=&quot;#0a0a0a&quot;&gt;&lt;br&gt;&lt;/font&gt;&lt;/div&gt;&lt;div&gt;&lt;font color=&quot;#0a0a0a&quot;&gt;Leaving notes should be possible.&lt;/font&gt;&lt;/div&gt;&lt;div&gt;&lt;font color=&quot;#0a0a0a&quot;&gt;&lt;br&gt;&lt;/font&gt;&lt;/div&gt;&lt;div align=&quot;center&quot;&gt;&lt;font color=&quot;#0a0a0a&quot;&gt;Outbound things are divided in two categories:&lt;/font&gt;&lt;/div&gt;&lt;div align=&quot;center&quot;&gt;&lt;font color=&quot;#0a0a0a&quot;&gt;&lt;br&gt;&lt;/font&gt;&lt;/div&gt;&lt;div align=&quot;center&quot;&gt;&lt;font color=&quot;#0a0a0a&quot;&gt;- Links &lt;br&gt;&lt;/font&gt;&lt;/div&gt;&lt;div align=&quot;center&quot;&gt;&lt;font color=&quot;#0a0a0a&quot;&gt;Target on block: top or bottom&lt;/font&gt;&lt;/div&gt;&lt;div align=&quot;center&quot;&gt;&lt;font color=&quot;#0a0a0a&quot;&gt;Action: Link to choice branch&lt;br&gt;&lt;/font&gt;&lt;/div&gt;&lt;div align=&quot;center&quot;&gt;&lt;font color=&quot;#0a0a0a&quot;&gt;&lt;br&gt;&lt;/font&gt;&lt;/div&gt;&lt;div&gt;&lt;font color=&quot;#0a0a0a&quot;&gt;- Text:&lt;/font&gt;&lt;/div&gt;&lt;div&gt;&lt;font color=&quot;#0a0a0a&quot;&gt;Target on block: left&lt;/font&gt;&lt;/div&gt;&lt;div&gt;&lt;font color=&quot;#0a0a0a&quot;&gt;Action: &lt;br&gt;&lt;/font&gt;&lt;/div&gt;&lt;div&gt;&lt;font color=&quot;#0a0a0a&quot;&gt;Continue text (merge branch?)&lt;/font&gt;&lt;br&gt;&lt;/div&gt;" style="whiteSpace=wrap;html=1;shape=mxgraph.basic.document;fillColor=#fff2cc;strokeColor=#d6b656;" parent="WIyWlLk6GJQsqaUBKTNV-1" vertex="1">
          <mxGeometry x="-120" y="10" width="230" height="230" as="geometry" />
        </mxCell>
        <mxCell id="3qfGR_5WwNO4YwbP6DgQ-82" value="" style="group;fontColor=#1C1C1C;" parent="WIyWlLk6GJQsqaUBKTNV-1" vertex="1" connectable="0">
          <mxGeometry x="-140" y="317" width="90" height="30" as="geometry" />
        </mxCell>
        <mxCell id="3qfGR_5WwNO4YwbP6DgQ-55" value="START" style="rounded=0;whiteSpace=wrap;html=1;fillColor=#d5e8d4;strokeColor=#82b366;fontColor=#1C1C1C;" parent="3qfGR_5WwNO4YwbP6DgQ-82" vertex="1">
          <mxGeometry width="80" height="30" as="geometry" />
        </mxCell>
        <mxCell id="3qfGR_5WwNO4YwbP6DgQ-79" value="" style="shape=waypoint;sketch=0;fillStyle=solid;size=6;pointerEvents=1;points=[];fillColor=#dae8fc;resizable=0;rotatable=0;perimeter=centerPerimeter;snapToPoint=1;strokeColor=#6c8ebf;fontColor=#1C1C1C;" parent="3qfGR_5WwNO4YwbP6DgQ-82" vertex="1">
          <mxGeometry x="70" y="5" width="20" height="20" as="geometry" />
        </mxCell>
        <mxCell id="3qfGR_5WwNO4YwbP6DgQ-81" style="edgeStyle=orthogonalEdgeStyle;rounded=0;orthogonalLoop=1;jettySize=auto;html=1;entryX=0.286;entryY=0.947;entryDx=0;entryDy=0;entryPerimeter=0;fontColor=#1C1C1C;" parent="3qfGR_5WwNO4YwbP6DgQ-82" source="3qfGR_5WwNO4YwbP6DgQ-79" target="3qfGR_5WwNO4YwbP6DgQ-79" edge="1">
          <mxGeometry relative="1" as="geometry" />
        </mxCell>
        <mxCell id="3qfGR_5WwNO4YwbP6DgQ-90" value="" style="group;fontColor=#424242;" parent="WIyWlLk6GJQsqaUBKTNV-1" vertex="1" connectable="0">
          <mxGeometry x="-20" y="306" width="160" height="52" as="geometry" />
        </mxCell>
        <mxCell id="3qfGR_5WwNO4YwbP6DgQ-5" value="&lt;font color=&quot;#0a0a0a&quot;&gt;Text&lt;/font&gt;" style="swimlane;fontStyle=0;childLayout=stackLayout;horizontal=1;startSize=26;fillColor=#dae8fc;horizontalStack=0;resizeParent=1;resizeParentMax=0;resizeLast=0;collapsible=1;marginBottom=0;html=1;strokeColor=#6c8ebf;" parent="3qfGR_5WwNO4YwbP6DgQ-90" vertex="1">
          <mxGeometry x="10" width="140" height="52" as="geometry" />
        </mxCell>
        <mxCell id="3qfGR_5WwNO4YwbP6DgQ-6" value="Edit text" style="text;strokeColor=none;fillColor=none;align=center;verticalAlign=top;spacingLeft=4;spacingRight=4;overflow=hidden;rotatable=0;points=[[0,0.5],[1,0.5]];portConstraint=eastwest;whiteSpace=wrap;html=1;" parent="3qfGR_5WwNO4YwbP6DgQ-5" vertex="1">
          <mxGeometry y="26" width="140" height="26" as="geometry" />
        </mxCell>
        <mxCell id="3qfGR_5WwNO4YwbP6DgQ-80" value="" style="shape=waypoint;sketch=0;fillStyle=solid;size=6;pointerEvents=1;points=[];fillColor=#dae8fc;resizable=0;rotatable=0;perimeter=centerPerimeter;snapToPoint=1;strokeColor=#6c8ebf;" parent="3qfGR_5WwNO4YwbP6DgQ-90" vertex="1">
          <mxGeometry y="16" width="20" height="20" as="geometry" />
        </mxCell>
        <mxCell id="3qfGR_5WwNO4YwbP6DgQ-88" value="" style="shape=waypoint;sketch=0;fillStyle=solid;size=6;pointerEvents=1;points=[];fillColor=#dae8fc;resizable=0;rotatable=0;perimeter=centerPerimeter;snapToPoint=1;strokeColor=#6c8ebf;" parent="3qfGR_5WwNO4YwbP6DgQ-90" vertex="1">
          <mxGeometry x="140" y="16" width="20" height="20" as="geometry" />
        </mxCell>
        <mxCell id="3qfGR_5WwNO4YwbP6DgQ-91" value="" style="group" parent="WIyWlLk6GJQsqaUBKTNV-1" vertex="1" connectable="0">
          <mxGeometry x="580" y="300" width="160" height="52" as="geometry" />
        </mxCell>
        <mxCell id="3qfGR_5WwNO4YwbP6DgQ-92" value="&lt;font color=&quot;#000000&quot;&gt;Final 1 (Text)&lt;/font&gt;" style="swimlane;fontStyle=0;childLayout=stackLayout;horizontal=1;startSize=26;fillColor=#dae8fc;horizontalStack=0;resizeParent=1;resizeParentMax=0;resizeLast=0;collapsible=1;marginBottom=0;html=1;strokeColor=#6c8ebf;" parent="3qfGR_5WwNO4YwbP6DgQ-91" vertex="1">
          <mxGeometry x="10" width="140" height="52" as="geometry" />
        </mxCell>
        <mxCell id="3qfGR_5WwNO4YwbP6DgQ-93" value="Edit text" style="text;strokeColor=none;fillColor=none;align=center;verticalAlign=top;spacingLeft=4;spacingRight=4;overflow=hidden;rotatable=0;points=[[0,0.5],[1,0.5]];portConstraint=eastwest;whiteSpace=wrap;html=1;" parent="3qfGR_5WwNO4YwbP6DgQ-92" vertex="1">
          <mxGeometry y="26" width="140" height="26" as="geometry" />
        </mxCell>
        <mxCell id="3qfGR_5WwNO4YwbP6DgQ-94" value="" style="shape=waypoint;sketch=0;fillStyle=solid;size=6;pointerEvents=1;points=[];fillColor=#dae8fc;resizable=0;rotatable=0;perimeter=centerPerimeter;snapToPoint=1;strokeColor=#6c8ebf;" parent="3qfGR_5WwNO4YwbP6DgQ-91" vertex="1">
          <mxGeometry y="16" width="20" height="20" as="geometry" />
        </mxCell>
        <mxCell id="3qfGR_5WwNO4YwbP6DgQ-95" value="" style="shape=waypoint;sketch=0;fillStyle=solid;size=6;pointerEvents=1;points=[];fillColor=#dae8fc;resizable=0;rotatable=0;perimeter=centerPerimeter;snapToPoint=1;strokeColor=#6c8ebf;" parent="3qfGR_5WwNO4YwbP6DgQ-91" vertex="1">
          <mxGeometry x="140" y="16" width="20" height="20" as="geometry" />
        </mxCell>
        <mxCell id="3qfGR_5WwNO4YwbP6DgQ-96" value="" style="shape=waypoint;sketch=0;fillStyle=solid;size=6;pointerEvents=1;points=[];fillColor=#dae8fc;resizable=0;rotatable=0;perimeter=centerPerimeter;snapToPoint=1;strokeColor=#6c8ebf;" parent="WIyWlLk6GJQsqaUBKTNV-1" vertex="1">
          <mxGeometry x="340" y="185" width="20" height="20" as="geometry" />
        </mxCell>
        <mxCell id="3qfGR_5WwNO4YwbP6DgQ-110" value="" style="group" parent="WIyWlLk6GJQsqaUBKTNV-1" vertex="1" connectable="0">
          <mxGeometry x="340" y="358" width="160" height="80" as="geometry" />
        </mxCell>
        <mxCell id="3qfGR_5WwNO4YwbP6DgQ-22" value="&lt;font color=&quot;#141414&quot;&gt;Start (Text)&lt;/font&gt;" style="swimlane;fontStyle=0;childLayout=stackLayout;horizontal=1;startSize=26;fillColor=#dae8fc;horizontalStack=0;resizeParent=1;resizeParentMax=0;resizeLast=0;collapsible=1;marginBottom=0;html=1;strokeColor=#6c8ebf;" parent="3qfGR_5WwNO4YwbP6DgQ-110" vertex="1">
          <mxGeometry x="10" width="140" height="80" as="geometry" />
        </mxCell>
        <mxCell id="3qfGR_5WwNO4YwbP6DgQ-23" value="Edit text" style="text;strokeColor=none;fillColor=none;align=center;verticalAlign=top;spacingLeft=4;spacingRight=4;overflow=hidden;rotatable=0;points=[[0,0.5],[1,0.5]];portConstraint=eastwest;whiteSpace=wrap;html=1;" parent="3qfGR_5WwNO4YwbP6DgQ-22" vertex="1">
          <mxGeometry y="26" width="140" height="26" as="geometry" />
        </mxCell>
        <mxCell id="3qfGR_5WwNO4YwbP6DgQ-38" value="" style="line;strokeWidth=1;html=1;fillColor=#dae8fc;strokeColor=#6c8ebf;" parent="3qfGR_5WwNO4YwbP6DgQ-22" vertex="1">
          <mxGeometry y="52" width="140" height="2" as="geometry" />
        </mxCell>
        <mxCell id="3qfGR_5WwNO4YwbP6DgQ-39" value="Continue | s2" style="text;align=right;verticalAlign=top;spacingLeft=4;spacingRight=4;overflow=hidden;rotatable=0;points=[[0,0.5],[1,0.5]];portConstraint=eastwest;whiteSpace=wrap;html=1;" parent="3qfGR_5WwNO4YwbP6DgQ-22" vertex="1">
          <mxGeometry y="54" width="140" height="26" as="geometry" />
        </mxCell>
        <mxCell id="3qfGR_5WwNO4YwbP6DgQ-84" value="" style="shape=waypoint;sketch=0;fillStyle=solid;size=6;pointerEvents=1;points=[];fillColor=#dae8fc;resizable=0;rotatable=0;perimeter=centerPerimeter;snapToPoint=1;strokeColor=#6c8ebf;" parent="3qfGR_5WwNO4YwbP6DgQ-110" vertex="1">
          <mxGeometry y="32" width="20" height="20" as="geometry" />
        </mxCell>
        <mxCell id="3qfGR_5WwNO4YwbP6DgQ-85" value="" style="shape=waypoint;sketch=0;fillStyle=solid;size=6;pointerEvents=1;points=[];fillColor=#dae8fc;resizable=0;rotatable=0;perimeter=centerPerimeter;snapToPoint=1;strokeColor=#6c8ebf;" parent="3qfGR_5WwNO4YwbP6DgQ-110" vertex="1">
          <mxGeometry x="140" y="30" width="20" height="20" as="geometry" />
        </mxCell>
        <mxCell id="3qfGR_5WwNO4YwbP6DgQ-87" value="" style="shape=waypoint;sketch=0;fillStyle=solid;size=6;pointerEvents=1;points=[];fillColor=#ffe6cc;resizable=0;rotatable=0;perimeter=centerPerimeter;snapToPoint=1;strokeColor=#d79b00;" parent="3qfGR_5WwNO4YwbP6DgQ-110" vertex="1">
          <mxGeometry x="140" y="60" width="20" height="20" as="geometry" />
        </mxCell>
        <mxCell id="3qfGR_5WwNO4YwbP6DgQ-116" value="" style="group" parent="WIyWlLk6GJQsqaUBKTNV-1" vertex="1" connectable="0">
          <mxGeometry x="150" y="270" width="160" height="124" as="geometry" />
        </mxCell>
        <mxCell id="3qfGR_5WwNO4YwbP6DgQ-0" value="&lt;font color=&quot;#000000&quot;&gt;First (Choice) ¹&lt;/font&gt;" style="swimlane;fontStyle=0;childLayout=stackLayout;horizontal=1;startSize=26;fillColor=#fad7ac;horizontalStack=0;resizeParent=1;resizeParentMax=0;resizeLast=0;collapsible=1;marginBottom=0;html=1;strokeColor=#b46504;" parent="3qfGR_5WwNO4YwbP6DgQ-116" vertex="1">
          <mxGeometry x="10" y="10" width="140" height="104" as="geometry">
            <mxRectangle x="10" y="10" width="60" height="30" as="alternateBounds" />
          </mxGeometry>
        </mxCell>
        <mxCell id="3qfGR_5WwNO4YwbP6DgQ-1" value="&lt;div&gt;Edit inner diagram&lt;/div&gt;&lt;div&gt;&lt;br&gt;&lt;/div&gt;" style="text;strokeColor=none;fillColor=none;align=center;verticalAlign=top;spacingLeft=4;spacingRight=4;overflow=hidden;rotatable=0;points=[[0,0.5],[1,0.5]];portConstraint=eastwest;whiteSpace=wrap;html=1;" parent="3qfGR_5WwNO4YwbP6DgQ-0" vertex="1">
          <mxGeometry y="26" width="140" height="24" as="geometry" />
        </mxCell>
        <mxCell id="3qfGR_5WwNO4YwbP6DgQ-11" value="" style="line;strokeWidth=1;html=1;fillColor=#ffe6cc;strokeColor=#d79b00;" parent="3qfGR_5WwNO4YwbP6DgQ-0" vertex="1">
          <mxGeometry y="50" width="140" height="2" as="geometry" />
        </mxCell>
        <mxCell id="3qfGR_5WwNO4YwbP6DgQ-2" value="Outbound Socket&amp;nbsp; 3" style="text;strokeColor=none;fillColor=none;align=right;verticalAlign=top;spacingLeft=4;spacingRight=4;overflow=hidden;rotatable=0;points=[[0,0.5],[1,0.5]];portConstraint=eastwest;whiteSpace=wrap;html=1;" parent="3qfGR_5WwNO4YwbP6DgQ-0" vertex="1">
          <mxGeometry y="52" width="140" height="26" as="geometry" />
        </mxCell>
        <mxCell id="3qfGR_5WwNO4YwbP6DgQ-3" value="Outbound Choice 1" style="text;strokeColor=none;fillColor=none;align=right;verticalAlign=top;spacingLeft=4;spacingRight=4;overflow=hidden;rotatable=0;points=[[0,0.5],[1,0.5]];portConstraint=eastwest;whiteSpace=wrap;html=1;" parent="3qfGR_5WwNO4YwbP6DgQ-0" vertex="1">
          <mxGeometry y="78" width="140" height="26" as="geometry" />
        </mxCell>
        <mxCell id="3qfGR_5WwNO4YwbP6DgQ-89" value="" style="shape=waypoint;sketch=0;fillStyle=solid;size=6;pointerEvents=1;points=[];fillColor=#dae8fc;resizable=0;rotatable=0;perimeter=centerPerimeter;snapToPoint=1;strokeColor=#6c8ebf;" parent="3qfGR_5WwNO4YwbP6DgQ-116" vertex="1">
          <mxGeometry y="52" width="20" height="20" as="geometry" />
        </mxCell>
        <mxCell id="3qfGR_5WwNO4YwbP6DgQ-112" value="" style="shape=waypoint;sketch=0;fillStyle=solid;size=6;pointerEvents=1;points=[];fillColor=#ffe6cc;resizable=0;rotatable=0;perimeter=centerPerimeter;snapToPoint=1;strokeColor=#d79b00;" parent="3qfGR_5WwNO4YwbP6DgQ-116" vertex="1">
          <mxGeometry x="70" width="20" height="20" as="geometry" />
        </mxCell>
        <mxCell id="3qfGR_5WwNO4YwbP6DgQ-113" value="" style="shape=waypoint;sketch=0;fillStyle=solid;size=6;pointerEvents=1;points=[];fillColor=#ffe6cc;resizable=0;rotatable=0;perimeter=centerPerimeter;snapToPoint=1;strokeColor=#d79b00;" parent="3qfGR_5WwNO4YwbP6DgQ-116" vertex="1">
          <mxGeometry x="70" y="104" width="20" height="20" as="geometry" />
        </mxCell>
        <mxCell id="3qfGR_5WwNO4YwbP6DgQ-114" value="" style="shape=waypoint;sketch=0;fillStyle=solid;size=6;pointerEvents=1;points=[];fillColor=#dae8fc;resizable=0;rotatable=0;perimeter=centerPerimeter;snapToPoint=1;strokeColor=#6c8ebf;" parent="3qfGR_5WwNO4YwbP6DgQ-116" vertex="1">
          <mxGeometry x="140" y="64" width="20" height="20" as="geometry" />
        </mxCell>
        <mxCell id="3qfGR_5WwNO4YwbP6DgQ-115" value="" style="shape=waypoint;sketch=0;fillStyle=solid;size=6;pointerEvents=1;points=[];fillColor=#dae8fc;resizable=0;rotatable=0;perimeter=centerPerimeter;snapToPoint=1;strokeColor=#6c8ebf;" parent="3qfGR_5WwNO4YwbP6DgQ-116" vertex="1">
          <mxGeometry x="140" y="88" width="20" height="20" as="geometry" />
        </mxCell>
        <mxCell id="3qfGR_5WwNO4YwbP6DgQ-117" value="" style="shape=waypoint;sketch=0;fillStyle=solid;size=6;pointerEvents=1;points=[];fillColor=#ffe6cc;resizable=0;rotatable=0;perimeter=centerPerimeter;snapToPoint=1;strokeColor=#d79b00;" parent="WIyWlLk6GJQsqaUBKTNV-1" vertex="1">
          <mxGeometry x="430" y="73" width="20" height="20" as="geometry" />
        </mxCell>
        <mxCell id="3qfGR_5WwNO4YwbP6DgQ-118" value="" style="shape=waypoint;sketch=0;fillStyle=solid;size=6;pointerEvents=1;points=[];fillColor=#ffe6cc;resizable=0;rotatable=0;perimeter=centerPerimeter;snapToPoint=1;strokeColor=#d79b00;" parent="WIyWlLk6GJQsqaUBKTNV-1" vertex="1">
          <mxGeometry x="430" y="317" width="20" height="20" as="geometry" />
        </mxCell>
        <mxCell id="3qfGR_5WwNO4YwbP6DgQ-119" value="" style="shape=waypoint;sketch=0;fillStyle=solid;size=6;pointerEvents=1;points=[];fillColor=#dae8fc;resizable=0;rotatable=0;perimeter=centerPerimeter;snapToPoint=1;strokeColor=#6c8ebf;" parent="WIyWlLk6GJQsqaUBKTNV-1" vertex="1">
          <mxGeometry x="520" y="168" width="20" height="20" as="geometry" />
        </mxCell>
        <mxCell id="3qfGR_5WwNO4YwbP6DgQ-120" value="" style="shape=waypoint;sketch=0;fillStyle=solid;size=6;pointerEvents=1;points=[];fillColor=#dae8fc;resizable=0;rotatable=0;perimeter=centerPerimeter;snapToPoint=1;strokeColor=#6c8ebf;" parent="WIyWlLk6GJQsqaUBKTNV-1" vertex="1">
          <mxGeometry x="520" y="193" width="20" height="20" as="geometry" />
        </mxCell>
        <mxCell id="3qfGR_5WwNO4YwbP6DgQ-121" value="" style="shape=waypoint;sketch=0;fillStyle=solid;size=6;pointerEvents=1;points=[];fillColor=#dae8fc;resizable=0;rotatable=0;perimeter=centerPerimeter;snapToPoint=1;strokeColor=#6c8ebf;" parent="WIyWlLk6GJQsqaUBKTNV-1" vertex="1">
          <mxGeometry x="520" y="253" width="20" height="20" as="geometry" />
        </mxCell>
        <mxCell id="3qfGR_5WwNO4YwbP6DgQ-148" value="" style="group" parent="WIyWlLk6GJQsqaUBKTNV-1" vertex="1" connectable="0">
          <mxGeometry y="484" width="160" height="52" as="geometry" />
        </mxCell>
        <mxCell id="3qfGR_5WwNO4YwbP6DgQ-149" value="&lt;div&gt;&lt;font color=&quot;#000000&quot;&gt;Text&lt;/font&gt;&lt;/div&gt;" style="swimlane;fontStyle=0;childLayout=stackLayout;horizontal=1;startSize=26;fillColor=#dae8fc;horizontalStack=0;resizeParent=1;resizeParentMax=0;resizeLast=0;collapsible=1;marginBottom=0;html=1;strokeColor=#6c8ebf;" parent="3qfGR_5WwNO4YwbP6DgQ-148" vertex="1">
          <mxGeometry x="10" width="140" height="52" as="geometry" />
        </mxCell>
        <mxCell id="3qfGR_5WwNO4YwbP6DgQ-150" value="Edit text" style="text;strokeColor=none;fillColor=none;align=center;verticalAlign=top;spacingLeft=4;spacingRight=4;overflow=hidden;rotatable=0;points=[[0,0.5],[1,0.5]];portConstraint=eastwest;whiteSpace=wrap;html=1;" parent="3qfGR_5WwNO4YwbP6DgQ-149" vertex="1">
          <mxGeometry y="26" width="140" height="26" as="geometry" />
        </mxCell>
        <mxCell id="3qfGR_5WwNO4YwbP6DgQ-151" value="" style="shape=waypoint;sketch=0;fillStyle=solid;size=6;pointerEvents=1;points=[];fillColor=#dae8fc;resizable=0;rotatable=0;perimeter=centerPerimeter;snapToPoint=1;strokeColor=#6c8ebf;" parent="3qfGR_5WwNO4YwbP6DgQ-148" vertex="1">
          <mxGeometry y="16" width="20" height="20" as="geometry" />
        </mxCell>
        <mxCell id="3qfGR_5WwNO4YwbP6DgQ-152" value="" style="shape=waypoint;sketch=0;fillStyle=solid;size=6;pointerEvents=1;points=[];fillColor=#dae8fc;resizable=0;rotatable=0;perimeter=centerPerimeter;snapToPoint=1;strokeColor=#6c8ebf;" parent="3qfGR_5WwNO4YwbP6DgQ-148" vertex="1">
          <mxGeometry x="140" y="16" width="20" height="20" as="geometry" />
        </mxCell>
        <mxCell id="3qfGR_5WwNO4YwbP6DgQ-153" value="" style="group" parent="WIyWlLk6GJQsqaUBKTNV-1" vertex="1" connectable="0">
          <mxGeometry x="-155" y="480" width="125" height="60" as="geometry" />
        </mxCell>
        <mxCell id="3qfGR_5WwNO4YwbP6DgQ-145" value="&lt;div&gt;Another Place&lt;/div&gt;&lt;div&gt;(Location)&lt;br&gt;&lt;/div&gt;" style="rounded=0;whiteSpace=wrap;html=1;fillColor=#f8cecc;strokeColor=#b85450;fontColor=#1C1C1C;" parent="3qfGR_5WwNO4YwbP6DgQ-153" vertex="1">
          <mxGeometry width="115" height="60" as="geometry" />
        </mxCell>
        <mxCell id="3qfGR_5WwNO4YwbP6DgQ-147" value="" style="shape=waypoint;sketch=0;fillStyle=solid;size=6;pointerEvents=1;points=[];fillColor=#dae8fc;resizable=0;rotatable=0;perimeter=centerPerimeter;snapToPoint=1;strokeColor=#6c8ebf;" parent="3qfGR_5WwNO4YwbP6DgQ-153" vertex="1">
          <mxGeometry x="105" y="20" width="20" height="20" as="geometry" />
        </mxCell>
        <mxCell id="3qfGR_5WwNO4YwbP6DgQ-154" style="edgeStyle=orthogonalEdgeStyle;rounded=0;orthogonalLoop=1;jettySize=auto;html=1;fillColor=#dae8fc;strokeColor=#6c8ebf;" parent="WIyWlLk6GJQsqaUBKTNV-1" source="3qfGR_5WwNO4YwbP6DgQ-147" target="3qfGR_5WwNO4YwbP6DgQ-151" edge="1">
          <mxGeometry relative="1" as="geometry" />
        </mxCell>
        <mxCell id="3qfGR_5WwNO4YwbP6DgQ-156" value="" style="group" parent="WIyWlLk6GJQsqaUBKTNV-1" vertex="1" connectable="0">
          <mxGeometry x="610" y="90" width="200" height="125" as="geometry" />
        </mxCell>
        <mxCell id="3qfGR_5WwNO4YwbP6DgQ-65" value="&lt;font color=&quot;#080808&quot;&gt;Debate (Argument) ³&lt;/font&gt;" style="swimlane;fontStyle=0;childLayout=stackLayout;horizontal=1;startSize=26;fillColor=#fad7ac;horizontalStack=0;resizeParent=1;resizeParentMax=0;resizeLast=0;collapsible=1;marginBottom=0;html=1;strokeColor=#b46504;" parent="3qfGR_5WwNO4YwbP6DgQ-156" vertex="1">
          <mxGeometry x="10" y="10" width="180" height="104" as="geometry">
            <mxRectangle x="380" y="230" width="60" height="30" as="alternateBounds" />
          </mxGeometry>
        </mxCell>
        <mxCell id="3qfGR_5WwNO4YwbP6DgQ-66" value="&lt;div&gt;Edit inner diagram&lt;/div&gt;&lt;div&gt;&lt;br&gt;&lt;/div&gt;" style="text;strokeColor=none;fillColor=none;align=center;verticalAlign=top;spacingLeft=4;spacingRight=4;overflow=hidden;rotatable=0;points=[[0,0.5],[1,0.5]];portConstraint=eastwest;whiteSpace=wrap;html=1;" parent="3qfGR_5WwNO4YwbP6DgQ-65" vertex="1">
          <mxGeometry y="26" width="180" height="24" as="geometry" />
        </mxCell>
        <mxCell id="3qfGR_5WwNO4YwbP6DgQ-67" value="" style="line;strokeWidth=1;html=1;fillColor=#ffe6cc;strokeColor=#d79b00;" parent="3qfGR_5WwNO4YwbP6DgQ-65" vertex="1">
          <mxGeometry y="50" width="180" height="2" as="geometry" />
        </mxCell>
        <mxCell id="3qfGR_5WwNO4YwbP6DgQ-68" value="Evidence × Statement" style="text;strokeColor=none;fillColor=none;align=right;verticalAlign=top;spacingLeft=4;spacingRight=4;overflow=hidden;rotatable=0;points=[[0,0.5],[1,0.5]];portConstraint=eastwest;whiteSpace=wrap;html=1;" parent="3qfGR_5WwNO4YwbP6DgQ-65" vertex="1">
          <mxGeometry y="52" width="180" height="26" as="geometry" />
        </mxCell>
        <mxCell id="3qfGR_5WwNO4YwbP6DgQ-69" value="Statement × Statement" style="text;strokeColor=none;fillColor=none;align=right;verticalAlign=top;spacingLeft=4;spacingRight=4;overflow=hidden;rotatable=0;points=[[0,0.5],[1,0.5]];portConstraint=eastwest;whiteSpace=wrap;html=1;" parent="3qfGR_5WwNO4YwbP6DgQ-65" vertex="1">
          <mxGeometry y="78" width="180" height="26" as="geometry" />
        </mxCell>
        <mxCell id="3qfGR_5WwNO4YwbP6DgQ-97" value="" style="shape=waypoint;sketch=0;fillStyle=solid;size=6;pointerEvents=1;points=[];fillColor=#dae8fc;resizable=0;rotatable=0;perimeter=centerPerimeter;snapToPoint=1;strokeColor=#6c8ebf;" parent="3qfGR_5WwNO4YwbP6DgQ-156" vertex="1">
          <mxGeometry y="52" width="20" height="20" as="geometry" />
        </mxCell>
        <mxCell id="3qfGR_5WwNO4YwbP6DgQ-125" value="" style="shape=waypoint;sketch=0;fillStyle=solid;size=6;pointerEvents=1;points=[];fillColor=#dae8fc;resizable=0;rotatable=0;perimeter=centerPerimeter;snapToPoint=1;strokeColor=#6c8ebf;" parent="3qfGR_5WwNO4YwbP6DgQ-156" vertex="1">
          <mxGeometry x="180" y="64" width="20" height="20" as="geometry" />
        </mxCell>
        <mxCell id="3qfGR_5WwNO4YwbP6DgQ-126" value="" style="shape=waypoint;sketch=0;fillStyle=solid;size=6;pointerEvents=1;points=[];fillColor=#ffe6cc;resizable=0;rotatable=0;perimeter=centerPerimeter;snapToPoint=1;strokeColor=#d79b00;" parent="3qfGR_5WwNO4YwbP6DgQ-156" vertex="1">
          <mxGeometry x="90" width="20" height="20" as="geometry" />
        </mxCell>
        <mxCell id="3qfGR_5WwNO4YwbP6DgQ-127" value="" style="shape=waypoint;sketch=0;fillStyle=solid;size=6;pointerEvents=1;points=[];fillColor=#ffe6cc;resizable=0;rotatable=0;perimeter=centerPerimeter;snapToPoint=1;strokeColor=#d79b00;" parent="3qfGR_5WwNO4YwbP6DgQ-156" vertex="1">
          <mxGeometry x="90" y="105" width="20" height="20" as="geometry" />
        </mxCell>
        <mxCell id="3qfGR_5WwNO4YwbP6DgQ-128" value="" style="shape=waypoint;sketch=0;fillStyle=solid;size=6;pointerEvents=1;points=[];fillColor=#dae8fc;resizable=0;rotatable=0;perimeter=centerPerimeter;snapToPoint=1;strokeColor=#6c8ebf;" parent="3qfGR_5WwNO4YwbP6DgQ-156" vertex="1">
          <mxGeometry x="180" y="90" width="20" height="20" as="geometry" />
        </mxCell>
        <mxCell id="3qfGR_5WwNO4YwbP6DgQ-157" style="edgeStyle=orthogonalEdgeStyle;rounded=0;orthogonalLoop=1;jettySize=auto;html=1;entryX=1.025;entryY=0.592;entryDx=0;entryDy=0;entryPerimeter=0;fillColor=#dae8fc;strokeColor=#6c8ebf;" parent="WIyWlLk6GJQsqaUBKTNV-1" source="3qfGR_5WwNO4YwbP6DgQ-79" target="3qfGR_5WwNO4YwbP6DgQ-80" edge="1">
          <mxGeometry relative="1" as="geometry" />
        </mxCell>
        <mxCell id="3qfGR_5WwNO4YwbP6DgQ-158" style="edgeStyle=orthogonalEdgeStyle;rounded=0;orthogonalLoop=1;jettySize=auto;html=1;fillColor=#dae8fc;strokeColor=#6c8ebf;" parent="WIyWlLk6GJQsqaUBKTNV-1" source="3qfGR_5WwNO4YwbP6DgQ-88" target="3qfGR_5WwNO4YwbP6DgQ-89" edge="1">
          <mxGeometry relative="1" as="geometry" />
        </mxCell>
        <mxCell id="3qfGR_5WwNO4YwbP6DgQ-160" style="edgeStyle=orthogonalEdgeStyle;rounded=0;orthogonalLoop=1;jettySize=auto;html=1;fillColor=#ffe6cc;strokeColor=#d79b00;" parent="WIyWlLk6GJQsqaUBKTNV-1" source="3qfGR_5WwNO4YwbP6DgQ-87" target="3qfGR_5WwNO4YwbP6DgQ-113" edge="1">
          <mxGeometry relative="1" as="geometry">
            <Array as="points">
              <mxPoint x="510" y="428" />
              <mxPoint x="510" y="470" />
              <mxPoint x="230" y="470" />
            </Array>
          </mxGeometry>
        </mxCell>
        <mxCell id="3qfGR_5WwNO4YwbP6DgQ-175" style="edgeStyle=orthogonalEdgeStyle;rounded=0;orthogonalLoop=1;jettySize=auto;html=1;entryX=-0.1;entryY=0.233;entryDx=0;entryDy=0;entryPerimeter=0;fillColor=#dae8fc;strokeColor=#6c8ebf;" parent="WIyWlLk6GJQsqaUBKTNV-1" source="3qfGR_5WwNO4YwbP6DgQ-2" target="3qfGR_5WwNO4YwbP6DgQ-96" edge="1">
          <mxGeometry relative="1" as="geometry">
            <Array as="points">
              <mxPoint x="320" y="345" />
              <mxPoint x="320" y="195" />
            </Array>
          </mxGeometry>
        </mxCell>
        <mxCell id="3qfGR_5WwNO4YwbP6DgQ-176" style="edgeStyle=orthogonalEdgeStyle;rounded=0;orthogonalLoop=1;jettySize=auto;html=1;fillColor=#dae8fc;strokeColor=#6c8ebf;" parent="WIyWlLk6GJQsqaUBKTNV-1" source="3qfGR_5WwNO4YwbP6DgQ-115" target="3qfGR_5WwNO4YwbP6DgQ-84" edge="1">
          <mxGeometry relative="1" as="geometry">
            <Array as="points">
              <mxPoint x="320" y="368" />
              <mxPoint x="320" y="400" />
            </Array>
          </mxGeometry>
        </mxCell>
        <mxCell id="3qfGR_5WwNO4YwbP6DgQ-180" style="edgeStyle=orthogonalEdgeStyle;rounded=0;orthogonalLoop=1;jettySize=auto;html=1;entryX=0.983;entryY=0.892;entryDx=0;entryDy=0;entryPerimeter=0;fillColor=#dae8fc;strokeColor=#6c8ebf;" parent="WIyWlLk6GJQsqaUBKTNV-1" source="3qfGR_5WwNO4YwbP6DgQ-121" target="3qfGR_5WwNO4YwbP6DgQ-94" edge="1">
          <mxGeometry relative="1" as="geometry">
            <Array as="points">
              <mxPoint x="560" y="263" />
              <mxPoint x="560" y="326" />
            </Array>
          </mxGeometry>
        </mxCell>
        <mxCell id="3qfGR_5WwNO4YwbP6DgQ-182" style="edgeStyle=orthogonalEdgeStyle;rounded=0;orthogonalLoop=1;jettySize=auto;html=1;entryX=0.692;entryY=0.15;entryDx=0;entryDy=0;entryPerimeter=0;fillColor=#dae8fc;strokeColor=#6c8ebf;" parent="WIyWlLk6GJQsqaUBKTNV-1" source="3qfGR_5WwNO4YwbP6DgQ-119" target="3qfGR_5WwNO4YwbP6DgQ-112" edge="1">
          <mxGeometry relative="1" as="geometry">
            <Array as="points">
              <mxPoint x="560" y="178" />
              <mxPoint x="560" y="30" />
              <mxPoint x="230" y="30" />
            </Array>
          </mxGeometry>
        </mxCell>
        <mxCell id="3qfGR_5WwNO4YwbP6DgQ-183" style="edgeStyle=orthogonalEdgeStyle;rounded=0;orthogonalLoop=1;jettySize=auto;html=1;entryX=0.608;entryY=0.925;entryDx=0;entryDy=0;entryPerimeter=0;fillColor=#dae8fc;strokeColor=#6c8ebf;" parent="WIyWlLk6GJQsqaUBKTNV-1" source="3qfGR_5WwNO4YwbP6DgQ-120" target="3qfGR_5WwNO4YwbP6DgQ-97" edge="1">
          <mxGeometry relative="1" as="geometry">
            <Array as="points">
              <mxPoint x="590" y="203" />
              <mxPoint x="590" y="152" />
            </Array>
          </mxGeometry>
        </mxCell>
        <mxCell id="YG3D1reFbePYwNZnk0ni-1" value="&lt;font style=&quot;font-size: 15px;&quot;&gt;Properties of &lt;span style=&quot;background-color: rgb(255, 206, 159);&quot;&gt;Choice&lt;/span&gt; First&lt;/font&gt;" style="swimlane;whiteSpace=wrap;html=1;" parent="WIyWlLk6GJQsqaUBKTNV-1" vertex="1">
          <mxGeometry x="-380" y="280" width="200" height="290" as="geometry" />
        </mxCell>
        <mxCell id="YG3D1reFbePYwNZnk0ni-36" value="First" style="strokeWidth=1;html=1;shadow=0;dashed=0;shape=mxgraph.ios.iTextInput;strokeColor=#444444;buttonText=;fontSize=11;whiteSpace=wrap;align=left;" parent="YG3D1reFbePYwNZnk0ni-1" vertex="1">
          <mxGeometry x="80" y="39.5" width="100" height="21" as="geometry" />
        </mxCell>
        <mxCell id="YG3D1reFbePYwNZnk0ni-37" value="Name :" style="text;html=1;align=left;verticalAlign=middle;whiteSpace=wrap;rounded=0;" parent="YG3D1reFbePYwNZnk0ni-1" vertex="1">
          <mxGeometry x="20" y="38.5" width="60" height="23" as="geometry" />
        </mxCell>
        <mxCell id="YG3D1reFbePYwNZnk0ni-45" value="Edit inner diagram" style="labelPosition=center;verticalLabelPosition=middle;align=center;html=1;shape=mxgraph.basic.shaded_button;dx=6;fillColor=#E6E6E6;strokeColor=none;whiteSpace=wrap;fontColor=#1C1C1C;" parent="YG3D1reFbePYwNZnk0ni-1" vertex="1">
          <mxGeometry x="45" y="240" width="110" height="36" as="geometry" />
        </mxCell>
      </root>
    </mxGraphModel>
  </diagram>
  <diagram id="ADt1IqpnHs3G_HZTMkFU" name="Choice">
    <mxGraphModel dx="1114" dy="735" grid="1" gridSize="10" guides="1" tooltips="1" connect="1" arrows="1" fold="1" page="1" pageScale="1" pageWidth="850" pageHeight="1100" math="0" shadow="0">
      <root>
        <mxCell id="0" />
        <mxCell id="1" parent="0" />
        <mxCell id="pdwnbibSordPmiqGbixH-2" value="Graph for Choice &quot;First&quot;" style="swimlane;" parent="1" vertex="1">
          <mxGeometry x="40" y="50" width="790" height="580" as="geometry" />
        </mxCell>
        <mxCell id="b70Ety6MjsdlAikZfQDR-1" value="Create" style="swimlane;" parent="1" vertex="1">
          <mxGeometry x="40" y="80" width="200" height="550" as="geometry" />
        </mxCell>
        <mxCell id="b70Ety6MjsdlAikZfQDR-2" value="Text" style="rounded=0;whiteSpace=wrap;html=1;fillColor=#dae8fc;strokeColor=#6c8ebf;fontColor=#000000;" parent="b70Ety6MjsdlAikZfQDR-1" vertex="1">
          <mxGeometry x="20" y="40" width="70" height="25" as="geometry" />
        </mxCell>
        <mxCell id="b70Ety6MjsdlAikZfQDR-3" value="Branch" style="rounded=0;whiteSpace=wrap;html=1;fillColor=#f8cecc;strokeColor=#b85450;fontColor=#000000;" parent="b70Ety6MjsdlAikZfQDR-1" vertex="1">
          <mxGeometry x="110" y="40" width="70" height="25" as="geometry" />
        </mxCell>
        <mxCell id="YKGmw4vLHCRMO96CvYiA-1" value="Note" style="whiteSpace=wrap;html=1;shape=mxgraph.basic.document" parent="b70Ety6MjsdlAikZfQDR-1" vertex="1">
          <mxGeometry x="50" y="440" width="100" height="100" as="geometry" />
        </mxCell>
        <mxCell id="RRu-WjKZzb52m80yog70-1" value="Outbound" style="rounded=0;whiteSpace=wrap;html=1;fillColor=#ffe6cc;strokeColor=#d79b00;fontColor=#000000;" parent="b70Ety6MjsdlAikZfQDR-1" vertex="1">
          <mxGeometry x="20" y="80" width="70" height="25" as="geometry" />
        </mxCell>
        <mxCell id="VB1ErHYRyBhvxB4hYkTO-1" value="Note" style="rounded=0;whiteSpace=wrap;html=1;fillColor=#fff2cc;strokeColor=#d6b656;fontColor=#000000;" vertex="1" parent="b70Ety6MjsdlAikZfQDR-1">
          <mxGeometry x="110" y="80" width="70" height="25" as="geometry" />
        </mxCell>
      </root>
    </mxGraphModel>
  </diagram>
</mxfile>
