<?xml version="1.0" encoding="UTF-8"?>
<svg width="24" height="24" version="1.1" viewBox="0 0 24 24" xmlns="http://www.w3.org/2000/svg">
 <path d="m20.452 17.807-8.9588-8.9588c-0.41775-0.41775-0.6315-0.9975-0.58725-1.5862 0.08625-1.1138-0.29625-2.2568-1.1468-3.1095-0.7725-0.771-1.782-1.1528-2.7922-1.1528-0.38025 0-0.76125 0.054-1.1288 0.162l2.3775 2.3775c0.258 1.1918-1.4692 2.9385-2.6752 2.6752l-2.3768-2.3775c-0.10875 0.369-0.1635 0.75-0.1635 1.1318 0 1.0102 0.3825 2.0182 1.1535 2.7908 0.85125 0.852 1.995 1.2338 3.1095 1.1475 0.58725-0.045 1.1678 0.1695 1.5848 0.58725l8.9595 8.958c0.351 0.351 0.8265 0.5475 1.3222 0.5475 1.026 0 1.8705-0.831 1.8705-1.8705 0-0.4785-0.183-0.957-0.54825-1.3222zm-1.3268 2.0678c-0.41475 0-0.75-0.336-0.75-0.75s0.33525-0.75 0.75-0.75 0.75 0.336 0.75 0.75-0.33525 0.75-0.75 0.75zm-5.9512-11.467 3.9952-3.9885c0.438-0.43875 1.011-0.6585 1.5848-0.6585 0.573 0 1.1468 0.219 1.5848 0.6585 0.44175 0.44025 0.6615 1.0178 0.6615 1.5938 0 0.573-0.21825 1.146-0.65475 1.5825l-3.9945 3.9885zm-2.6475 6.885-3.9202 3.8888c-0.17025 0.1725-0.31725 0.366-0.4305 0.5805l-0.22575 0.435-1.575 0.8025-0.62475-0.6255 0.76875-1.6095 0.435-0.2265c0.2145-0.1125 0.42075-0.24675 0.5925-0.4185l3.9202-3.8888z" stroke-width=".75"/>
</svg>
